easy_axi_tb.vcd
$date
	Fri Dec 30 21:21:24 2022
$end
$version
	Icarus Verilog
$end
$timescale
	1ps
$end
$scope module EASY_AXI_TB $end
$var wire 1 ! txn_done $end
$var reg 1 " clk $end
$var reg 1 # rst_n $end
$var reg 1 $ txn_start $end
$var reg 2 % txn_type [1:0] $end
$scope module U_EASY_AXI_0 $end
$var wire 1 & axi_aclk $end
$var wire 2 ' axi_arburst [1:0] $end
$var wire 4 ( axi_arcache [3:0] $end
$var wire 1 ) axi_aresetn $end
$var wire 1 * axi_arid $end
$var wire 8 + axi_arlen [7:0] $end
$var wire 1 , axi_arlock $end
$var wire 3 - axi_arprot [2:0] $end
$var wire 4 . axi_arqos [3:0] $end
$var wire 4 / axi_arregion [3:0] $end
$var wire 2 0 axi_awburst [1:0] $end
$var wire 4 1 axi_awcache [3:0] $end
$var wire 1 2 axi_awid $end
$var wire 8 3 axi_awlen [7:0] $end
$var wire 1 4 axi_awlock $end
$var wire 3 5 axi_awprot [2:0] $end
$var wire 4 6 axi_awqos [3:0] $end
$var wire 4 7 axi_awregion [3:0] $end
$var wire 4 8 axi_wstrb [3:0] $end
$var wire 1 " clk $end
$var wire 1 # rst_n $end
$var wire 1 $ txn_start $end
$var wire 2 9 txn_type [1:0] $end
$var wire 1 ! txn_done $end
$var wire 1 : axi_wvalid $end
$var wire 1 ; axi_wready $end
$var wire 1 < axi_wlast $end
$var wire 32 = axi_wdata [31:0] $end
$var wire 1 > axi_rvalid $end
$var wire 2 ? axi_rresp [1:0] $end
$var wire 1 @ axi_rready $end
$var wire 1 A axi_rlast $end
$var wire 1 B axi_rid $end
$var wire 32 C axi_rdata [31:0] $end
$var wire 1 D axi_bvalid $end
$var wire 2 E axi_bresp [1:0] $end
$var wire 1 F axi_bready $end
$var wire 1 G axi_bid $end
$var wire 1 H axi_awvalid $end
$var wire 3 I axi_awsize [2:0] $end
$var wire 1 J axi_awready $end
$var wire 32 K axi_awaddr [31:0] $end
$var wire 1 L axi_arvalid $end
$var wire 3 M axi_arsize [2:0] $end
$var wire 1 N axi_arready $end
$var wire 32 O axi_araddr [31:0] $end
$scope module U_M_AXI_0 $end
$var wire 7 P burst_size_bytes [6:0] $end
$var wire 1 & m_axi_aclk $end
$var wire 2 Q m_axi_arburst [1:0] $end
$var wire 4 R m_axi_arcache [3:0] $end
$var wire 1 ) m_axi_aresetn $end
$var wire 1 * m_axi_arid $end
$var wire 8 S m_axi_arlen [7:0] $end
$var wire 1 , m_axi_arlock $end
$var wire 3 T m_axi_arprot [2:0] $end
$var wire 4 U m_axi_arqos [3:0] $end
$var wire 4 V m_axi_arregion [3:0] $end
$var wire 1 L m_axi_arvalid $end
$var wire 2 W m_axi_awburst [1:0] $end
$var wire 4 X m_axi_awcache [3:0] $end
$var wire 1 2 m_axi_awid $end
$var wire 8 Y m_axi_awlen [7:0] $end
$var wire 1 4 m_axi_awlock $end
$var wire 3 Z m_axi_awprot [2:0] $end
$var wire 4 [ m_axi_awqos [3:0] $end
$var wire 4 \ m_axi_awregion [3:0] $end
$var wire 1 H m_axi_awvalid $end
$var wire 1 F m_axi_bready $end
$var wire 1 @ m_axi_rready $end
$var wire 32 ] m_axi_wdata [31:0] $end
$var wire 1 < m_axi_wlast $end
$var wire 4 ^ m_axi_wstrb [3:0] $end
$var wire 1 : m_axi_wvalid $end
$var wire 1 _ read_resp_error $end
$var wire 1 ! txn_done $end
$var wire 1 $ txn_start $end
$var wire 1 ` txn_start_pulse $end
$var wire 2 a txn_type [1:0] $end
$var wire 1 b write_resp_error $end
$var wire 1 ; m_axi_wready $end
$var wire 1 > m_axi_rvalid $end
$var wire 2 c m_axi_rresp [1:0] $end
$var wire 1 A m_axi_rlast $end
$var wire 1 B m_axi_rid $end
$var wire 32 d m_axi_rdata [31:0] $end
$var wire 1 D m_axi_bvalid $end
$var wire 2 e m_axi_bresp [1:0] $end
$var wire 1 G m_axi_bid $end
$var wire 3 f m_axi_awsize [2:0] $end
$var wire 1 J m_axi_awready $end
$var wire 32 g m_axi_awaddr [31:0] $end
$var wire 3 h m_axi_arsize [2:0] $end
$var wire 1 N m_axi_arready $end
$var wire 32 i m_axi_araddr [31:0] $end
$var reg 32 j axi_araddr [31:0] $end
$var reg 1 k axi_arvalid $end
$var reg 32 l axi_awaddr [31:0] $end
$var reg 1 m axi_awvalid $end
$var reg 1 n axi_bready $end
$var reg 1 o axi_rready $end
$var reg 32 p axi_wdata [31:0] $end
$var reg 1 q axi_wlast $end
$var reg 1 : axi_wvalid $end
$var reg 1 r burst_read_active $end
$var reg 1 s burst_write_active $end
$var reg 2 t mst_exestate [1:0] $end
$var reg 5 u read_index [4:0] $end
$var reg 1 v reads_done $end
$var reg 1 w start_single_burst_read $end
$var reg 1 x start_single_burst_write $end
$var reg 1 y txn_start_ff $end
$var reg 1 z txn_start_ff2 $end
$var reg 5 { write_index [4:0] $end
$var reg 1 | writes_done $end
$scope function clogb2 $end
$var integer 32 } bit_depth [31:0] $end
$var integer 32 ~ clogb2 [31:0] $end
$upscope $end
$upscope $end
$scope module U_S_AXI_0 $end
$var wire 1 & s_axi_aclk $end
$var wire 32 !" s_axi_araddr [31:0] $end
$var wire 2 "" s_axi_arburst [1:0] $end
$var wire 4 #" s_axi_arcache [3:0] $end
$var wire 1 ) s_axi_aresetn $end
$var wire 1 * s_axi_arid $end
$var wire 8 $" s_axi_arlen [7:0] $end
$var wire 1 , s_axi_arlock $end
$var wire 3 %" s_axi_arprot [2:0] $end
$var wire 4 &" s_axi_arqos [3:0] $end
$var wire 1 N s_axi_arready $end
$var wire 4 '" s_axi_arregion [3:0] $end
$var wire 3 (" s_axi_arsize [2:0] $end
$var wire 1 L s_axi_arvalid $end
$var wire 32 )" s_axi_awaddr [31:0] $end
$var wire 2 *" s_axi_awburst [1:0] $end
$var wire 4 +" s_axi_awcache [3:0] $end
$var wire 1 2 s_axi_awid $end
$var wire 8 ," s_axi_awlen [7:0] $end
$var wire 1 4 s_axi_awlock $end
$var wire 3 -" s_axi_awprot [2:0] $end
$var wire 4 ." s_axi_awqos [3:0] $end
$var wire 1 J s_axi_awready $end
$var wire 4 /" s_axi_awregion [3:0] $end
$var wire 3 0" s_axi_awsize [2:0] $end
$var wire 1 H s_axi_awvalid $end
$var wire 1 G s_axi_bid $end
$var wire 1 F s_axi_bready $end
$var wire 2 1" s_axi_bresp [1:0] $end
$var wire 1 D s_axi_bvalid $end
$var wire 32 2" s_axi_rdata [31:0] $end
$var wire 1 B s_axi_rid $end
$var wire 1 A s_axi_rlast $end
$var wire 1 @ s_axi_rready $end
$var wire 2 3" s_axi_rresp [1:0] $end
$var wire 1 > s_axi_rvalid $end
$var wire 32 4" s_axi_wdata [31:0] $end
$var wire 1 < s_axi_wlast $end
$var wire 1 ; s_axi_wready $end
$var wire 4 5" s_axi_wstrb [3:0] $end
$var wire 1 : s_axi_wvalid $end
$var wire 6 6" mem_address [5:0] $end
$var wire 32 7" aw_wrap_size [31:0] $end
$var wire 1 8" aw_wrap_en $end
$var wire 32 9" ar_wrap_size [31:0] $end
$var wire 1 :" ar_wrap_en $end
$var reg 32 ;" axi_araddr [31:0] $end
$var reg 2 <" axi_arburst [1:0] $end
$var reg 8 =" axi_arlen [7:0] $end
$var reg 1 >" axi_arready $end
$var reg 32 ?" axi_awaddr [31:0] $end
$var reg 2 @" axi_awburst [1:0] $end
$var reg 8 A" axi_awlen [7:0] $end
$var reg 1 B" axi_awready $end
$var reg 2 C" axi_bresp [1:0] $end
$var reg 1 D axi_bvalid $end
$var reg 32 D" axi_rdata [31:0] $end
$var reg 1 E" axi_rlast $end
$var reg 2 F" axi_rresp [1:0] $end
$var reg 1 > axi_rvalid $end
$var reg 1 G" axi_wready $end
$var reg 1 H" burst_read_active $end
$var reg 1 I" burst_write_active $end
$var reg 8 J" read_index [7:0] $end
$var reg 8 K" write_index [7:0] $end
$scope begin BRAM_GEN[0] $end
$var wire 1 L" mem_rden $end
$var wire 1 M" mem_wren $end
$scope begin BYTE_BRAM_GEN[0] $end
$var wire 8 N" data_in [7:0] $end
$var wire 8 O" data_out [7:0] $end
$upscope $end
$scope begin BYTE_BRAM_GEN[1] $end
$var wire 8 P" data_in [7:0] $end
$var wire 8 Q" data_out [7:0] $end
$upscope $end
$scope begin BYTE_BRAM_GEN[2] $end
$var wire 8 R" data_in [7:0] $end
$var wire 8 S" data_out [7:0] $end
$upscope $end
$scope begin BYTE_BRAM_GEN[3] $end
$var wire 8 T" data_in [7:0] $end
$var wire 8 U" data_out [7:0] $end
$upscope $end
$upscope $end
$scope begin genblk1 $end
$upscope $end
$upscope $end
$upscope $end
$scope task start_read $end
$upscope $end
$scope task start_write $end
$upscope $end
$upscope $end
$enddefinitions $end
#0
$dumpvars
bx U"
bx T"
bx S"
bx R"
bx Q"
bx P"
bx O"
bx N"
xM"
xL"
bx K"
bx J"
xI"
xH"
xG"
bx F"
xE"
bx D"
bx C"
xB"
bx A"
bx @"
bx ?"
x>"
bx ="
bx <"
bx ;"
x:"
bx 9"
x8"
bx 7"
bx 6"
b1111 5"
bx 4"
bx 3"
bx 2"
bx 1"
b10 0"
b0 /"
b0 ."
b0 -"
b1111 ,"
b10 +"
b1 *"
bx )"
b10 ("
b0 '"
b0 &"
b0 %"
b1111 $"
b10 #"
b1 ""
bx !"
b10 ~
b0 }
x|
bx {
xz
xy
xx
xw
xv
bx u
bx t
xs
xr
xq
bx p
xo
xn
xm
bx l
xk
bx j
bx i
b10 h
bx g
b10 f
bx e
bx d
bx c
xb
b0 a
x`
x_
b1111 ^
bx ]
b0 \
b0 [
b0 Z
b1111 Y
b10 X
b1 W
b0 V
b0 U
b0 T
b1111 S
b10 R
b1 Q
b1000000 P
bx O
xN
b10 M
xL
bx K
xJ
b10 I
xH
0G
xF
bx E
xD
bx C
0B
xA
x@
bx ?
x>
bx =
x<
x;
x:
b0 9
b1111 8
b0 7
b0 6
b0 5
04
b1111 3
02
b10 1
b1 0
b0 /
b0 .
b0 -
0,
b1111 +
0*
0)
b10 (
b1 '
0&
b0 %
0$
0#
0"
x!
$end
#5000
1!
b0 6"
18"
0b
1:"
0_
0`
b0 N"
b0 P"
b0 R"
b0 T"
0M"
0z
0y
0H
0m
b1000000000000000000000000000000 K
b1000000000000000000000000000000 g
b1000000000000000000000000000000 )"
b0 l
0:
0<
0q
b0 {
b0 =
b0 ]
b0 p
b0 4"
0F
0n
0L
0k
b1000000000000000000000000000000 O
b1000000000000000000000000000000 i
b1000000000000000000000000000000 !"
b0 j
b0 u
0@
0o
0w
0x
b0 t
0s
0|
0r
0v
0I"
0J
0B"
b0 7"
b0 A"
b0 @"
b0 K"
b0 ?"
0;
0G"
b0 E
b0 e
b0 1"
b0 C"
0D
0L"
0H"
0N
0>"
0A
0E"
b0 9"
b0 ="
b0 <"
b0 J"
b0 ;"
b0 ?
b0 c
b0 3"
b0 F"
0>
1&
1"
#10000
0&
0"
#15000
1&
1"
#20000
0&
0"
#25000
1&
1"
#30000
0&
0"
#35000
1&
1"
#40000
0&
0"
#45000
1&
1"
#50000
0&
0"
1)
1#
#55000
1&
1"
#60000
0&
0"
#65000
1&
1"
#70000
0&
0"
#75000
1&
1"
#80000
0&
0"
#85000
1&
1"
#90000
0&
0"
#95000
1&
1"
#100000
0&
0"
#105000
1&
1"
#110000
0&
0"
#115000
1&
1"
#120000
0&
0"
#125000
1&
1"
#130000
0&
0"
#135000
1&
1"
#140000
0&
0"
#145000
1&
1"
#150000
0&
0"
1$
b1 %
b1 9
b1 a
#155000
1`
1y
1&
1"
#160000
0&
0"
#165000
0`
1z
b1 t
1&
1"
#170000
0&
0"
#175000
1x
1&
1"
#180000
0&
0"
#185000
0!
1H
1m
1:
1s
1&
1"
#190000
0&
0"
#195000
08"
b111100 7"
b1111 A"
b1 @"
b1000000000000000000000000000000 ?"
1I"
1J
1B"
0x
1&
1"
#200000
0&
0"
0$
#205000
1M"
0y
0H
0m
b1000000000000000000000001000000 K
b1000000000000000000000001000000 g
b1000000000000000000000001000000 )"
b1000000 l
0J
0B"
1;
1G"
1&
1"
#210000
0&
0"
#215000
b1 6"
b1 N"
b1000000000000000000000000000100 ?"
b1 K"
bx U"
bx S"
bx Q"
bx O"
b1 =
b1 ]
b1 p
b1 4"
b1 {
0z
1&
1"
#220000
0&
0"
#225000
b10 6"
b10 N"
b10 {
b10 =
b10 ]
b10 p
b10 4"
bx O"
bx Q"
bx S"
bx U"
b1000000000000000000000000001000 ?"
b10 K"
1&
1"
#230000
0&
0"
#235000
b11 6"
b11 N"
b1000000000000000000000000001100 ?"
b11 K"
bx U"
bx S"
bx Q"
bx O"
b11 =
b11 ]
b11 p
b11 4"
b11 {
1&
1"
#240000
0&
0"
#245000
b100 6"
b100 N"
b100 {
b100 =
b100 ]
b100 p
b100 4"
bx O"
bx Q"
bx S"
bx U"
b1000000000000000000000000010000 ?"
b100 K"
1&
1"
#250000
0&
0"
#255000
b101 6"
b101 N"
b1000000000000000000000000010100 ?"
b101 K"
bx U"
bx S"
bx Q"
bx O"
b101 =
b101 ]
b101 p
b101 4"
b101 {
1&
1"
#260000
0&
0"
#265000
b110 6"
b110 N"
b110 {
b110 =
b110 ]
b110 p
b110 4"
bx O"
bx Q"
bx S"
bx U"
b1000000000000000000000000011000 ?"
b110 K"
1&
1"
#270000
0&
0"
#275000
b111 6"
b111 N"
b1000000000000000000000000011100 ?"
b111 K"
bx U"
bx S"
bx Q"
bx O"
b111 =
b111 ]
b111 p
b111 4"
b111 {
1&
1"
#280000
0&
0"
#285000
b1000 6"
b1000 N"
b1000 {
b1000 =
b1000 ]
b1000 p
b1000 4"
bx O"
bx Q"
bx S"
bx U"
b1000000000000000000000000100000 ?"
b1000 K"
1&
1"
#290000
0&
0"
#295000
b1001 6"
b1001 N"
b1000000000000000000000000100100 ?"
b1001 K"
bx U"
bx S"
bx Q"
bx O"
b1001 =
b1001 ]
b1001 p
b1001 4"
b1001 {
1&
1"
#300000
0&
0"
#305000
b1010 6"
b1010 N"
b1010 {
b1010 =
b1010 ]
b1010 p
b1010 4"
bx O"
bx Q"
bx S"
bx U"
b1000000000000000000000000101000 ?"
b1010 K"
1&
1"
#310000
0&
0"
#315000
b1011 6"
b1011 N"
b1000000000000000000000000101100 ?"
b1011 K"
bx U"
bx S"
bx Q"
bx O"
b1011 =
b1011 ]
b1011 p
b1011 4"
b1011 {
1&
1"
#320000
0&
0"
#325000
b1100 6"
b1100 N"
b1100 {
b1100 =
b1100 ]
b1100 p
b1100 4"
bx O"
bx Q"
bx S"
bx U"
b1000000000000000000000000110000 ?"
b1100 K"
1&
1"
#330000
0&
0"
#335000
b1101 6"
b1101 N"
b1000000000000000000000000110100 ?"
b1101 K"
bx U"
bx S"
bx Q"
bx O"
b1101 =
b1101 ]
b1101 p
b1101 4"
b1101 {
1&
1"
#340000
0&
0"
#345000
b1110 6"
b1110 N"
b1110 {
b1110 =
b1110 ]
b1110 p
b1110 4"
bx O"
bx Q"
bx S"
bx U"
b1000000000000000000000000111000 ?"
b1110 K"
1&
1"
#350000
0&
0"
#355000
b1111 6"
18"
b1111 N"
b1000000000000000000000000111100 ?"
b1111 K"
bx U"
bx S"
bx Q"
bx O"
b1111 =
b1111 ]
b1111 p
b1111 4"
b1111 {
1<
1q
1&
1"
#360000
0&
0"
#365000
b0 6"
08"
b10000 N"
0M"
0:
0<
0q
b10000 =
b10000 ]
b10000 p
b10000 4"
b0 O"
b0 Q"
b0 S"
b0 U"
0I"
b1000000000000000000000001000000 ?"
b10000 K"
0;
0G"
1D
1&
1"
#370000
0&
0"
#375000
1F
1n
1&
1"
#380000
0&
0"
#385000
1!
0F
0n
0s
1|
0D
1&
1"
#390000
0&
0"
#395000
0|
b0 t
1&
1"
