xilinx_axi_ip/axi_tb.vcd
$date
	Tue Dec 27 02:30:25 2022
$end
$version
	Icarus Verilog
$end
$timescale
	1ps
$end
$scope module AXI_TB $end
$var wire 1 ! AXI_ACLK $end
$var wire 2 " AXI_ARBURST [1:0] $end
$var wire 4 # AXI_ARCACHE [3:0] $end
$var wire 1 $ AXI_ARESETN $end
$var wire 1 % AXI_ARID $end
$var wire 8 & AXI_ARLEN [7:0] $end
$var wire 1 ' AXI_ARLOCK $end
$var wire 3 ( AXI_ARPROT [2:0] $end
$var wire 4 ) AXI_ARQOS [3:0] $end
$var wire 4 * AXI_ARREGION [3:0] $end
$var wire 2 + AXI_ARUSER [-1:0] $end
$var wire 2 , AXI_AWBURST [1:0] $end
$var wire 4 - AXI_AWCACHE [3:0] $end
$var wire 1 . AXI_AWID $end
$var wire 8 / AXI_AWLEN [7:0] $end
$var wire 1 0 AXI_AWLOCK $end
$var wire 3 1 AXI_AWPROT [2:0] $end
$var wire 4 2 AXI_AWQOS [3:0] $end
$var wire 4 3 AXI_AWREGION [3:0] $end
$var wire 2 4 AXI_AWUSER [-1:0] $end
$var wire 4 5 AXI_WSTRB [3:0] $end
$var wire 2 6 AXI_WUSER [-1:0] $end
$var wire 1 7 TXN_DONE $end
$var wire 1 8 ERROR $end
$var wire 1 9 AXI_WVALID $end
$var wire 1 : AXI_WREADY $end
$var wire 1 ; AXI_WLAST $end
$var wire 32 < AXI_WDATA [31:0] $end
$var wire 1 = AXI_RVALID $end
$var wire 2 > AXI_RUSER [-1:0] $end
$var wire 2 ? AXI_RRESP [1:0] $end
$var wire 1 @ AXI_RREADY $end
$var wire 1 A AXI_RLAST $end
$var wire 1 B AXI_RID $end
$var wire 32 C AXI_RDATA [31:0] $end
$var wire 1 D AXI_BVALID $end
$var wire 2 E AXI_BUSER [-1:0] $end
$var wire 2 F AXI_BRESP [1:0] $end
$var wire 1 G AXI_BREADY $end
$var wire 1 H AXI_BID $end
$var wire 1 I AXI_AWVALID $end
$var wire 3 J AXI_AWSIZE [2:0] $end
$var wire 1 K AXI_AWREADY $end
$var wire 32 L AXI_AWADDR [31:0] $end
$var wire 1 M AXI_ARVALID $end
$var wire 3 N AXI_ARSIZE [2:0] $end
$var wire 1 O AXI_ARREADY $end
$var wire 32 P AXI_ARADDR [31:0] $end
$var reg 1 Q INIT_AXI_TXN $end
$var reg 1 R clk $end
$var reg 1 S rst_n $end
$scope module U_M_AXI_0 $end
$var wire 1 Q INIT_AXI_TXN $end
$var wire 1 ! M_AXI_ACLK $end
$var wire 2 T M_AXI_ARBURST [1:0] $end
$var wire 4 U M_AXI_ARCACHE [3:0] $end
$var wire 1 $ M_AXI_ARESETN $end
$var wire 1 % M_AXI_ARID $end
$var wire 8 V M_AXI_ARLEN [7:0] $end
$var wire 1 ' M_AXI_ARLOCK $end
$var wire 3 W M_AXI_ARPROT [2:0] $end
$var wire 4 X M_AXI_ARQOS [3:0] $end
$var wire 2 Y M_AXI_ARUSER [-1:0] $end
$var wire 1 M M_AXI_ARVALID $end
$var wire 2 Z M_AXI_AWBURST [1:0] $end
$var wire 4 [ M_AXI_AWCACHE [3:0] $end
$var wire 1 . M_AXI_AWID $end
$var wire 8 \ M_AXI_AWLEN [7:0] $end
$var wire 1 0 M_AXI_AWLOCK $end
$var wire 3 ] M_AXI_AWPROT [2:0] $end
$var wire 4 ^ M_AXI_AWQOS [3:0] $end
$var wire 2 _ M_AXI_AWUSER [-1:0] $end
$var wire 1 I M_AXI_AWVALID $end
$var wire 1 G M_AXI_BREADY $end
$var wire 1 @ M_AXI_RREADY $end
$var wire 1 ; M_AXI_WLAST $end
$var wire 4 ` M_AXI_WSTRB [3:0] $end
$var wire 2 a M_AXI_WUSER [-1:0] $end
$var wire 1 9 M_AXI_WVALID $end
$var wire 1 7 TXN_DONE $end
$var wire 7 b burst_size_bytes [6:0] $end
$var wire 1 c init_txn_pulse $end
$var wire 1 d read_resp_error $end
$var wire 1 e rnext $end
$var wire 1 f wnext $end
$var wire 1 g write_resp_error $end
$var wire 1 : M_AXI_WREADY $end
$var wire 32 h M_AXI_WDATA [31:0] $end
$var wire 1 = M_AXI_RVALID $end
$var wire 2 i M_AXI_RUSER [-1:0] $end
$var wire 2 j M_AXI_RRESP [1:0] $end
$var wire 1 A M_AXI_RLAST $end
$var wire 1 B M_AXI_RID $end
$var wire 32 k M_AXI_RDATA [31:0] $end
$var wire 1 D M_AXI_BVALID $end
$var wire 2 l M_AXI_BUSER [-1:0] $end
$var wire 2 m M_AXI_BRESP [1:0] $end
$var wire 1 H M_AXI_BID $end
$var wire 3 n M_AXI_AWSIZE [2:0] $end
$var wire 1 K M_AXI_AWREADY $end
$var wire 32 o M_AXI_AWADDR [31:0] $end
$var wire 3 p M_AXI_ARSIZE [2:0] $end
$var wire 1 O M_AXI_ARREADY $end
$var wire 32 q M_AXI_ARADDR [31:0] $end
$var reg 1 8 ERROR $end
$var reg 32 r axi_araddr [31:0] $end
$var reg 1 s axi_arvalid $end
$var reg 32 t axi_awaddr [31:0] $end
$var reg 1 u axi_awvalid $end
$var reg 1 v axi_bready $end
$var reg 1 w axi_rready $end
$var reg 32 x axi_wdata [31:0] $end
$var reg 1 y axi_wlast $end
$var reg 1 z axi_wvalid $end
$var reg 1 { burst_read_active $end
$var reg 1 | burst_write_active $end
$var reg 1 } compare_done $end
$var reg 1 ~ error_reg $end
$var reg 32 !" expected_rdata [31:0] $end
$var reg 1 "" init_txn_ff $end
$var reg 1 #" init_txn_ff2 $end
$var reg 2 $" mst_exec_state [1:0] $end
$var reg 3 %" read_burst_counter [2:0] $end
$var reg 5 &" read_index [4:0] $end
$var reg 1 '" read_mismatch $end
$var reg 1 (" reads_done $end
$var reg 1 )" start_single_burst_read $end
$var reg 1 *" start_single_burst_write $end
$var reg 3 +" write_burst_counter [2:0] $end
$var reg 5 ," write_index [4:0] $end
$var reg 1 -" writes_done $end
$scope function clogb2 $end
$var integer 32 ." bit_depth [31:0] $end
$var integer 32 /" clogb2 [31:0] $end
$upscope $end
$upscope $end
$scope module U_S_AXI_0 $end
$var wire 1 ! S_AXI_ACLK $end
$var wire 32 0" S_AXI_ARADDR [31:0] $end
$var wire 2 1" S_AXI_ARBURST [1:0] $end
$var wire 4 2" S_AXI_ARCACHE [3:0] $end
$var wire 1 $ S_AXI_ARESETN $end
$var wire 1 % S_AXI_ARID $end
$var wire 8 3" S_AXI_ARLEN [7:0] $end
$var wire 1 ' S_AXI_ARLOCK $end
$var wire 3 4" S_AXI_ARPROT [2:0] $end
$var wire 4 5" S_AXI_ARQOS [3:0] $end
$var wire 1 O S_AXI_ARREADY $end
$var wire 4 6" S_AXI_ARREGION [3:0] $end
$var wire 3 7" S_AXI_ARSIZE [2:0] $end
$var wire 2 8" S_AXI_ARUSER [-1:0] $end
$var wire 1 M S_AXI_ARVALID $end
$var wire 32 9" S_AXI_AWADDR [31:0] $end
$var wire 2 :" S_AXI_AWBURST [1:0] $end
$var wire 4 ;" S_AXI_AWCACHE [3:0] $end
$var wire 1 . S_AXI_AWID $end
$var wire 8 <" S_AXI_AWLEN [7:0] $end
$var wire 1 0 S_AXI_AWLOCK $end
$var wire 3 =" S_AXI_AWPROT [2:0] $end
$var wire 4 >" S_AXI_AWQOS [3:0] $end
$var wire 1 K S_AXI_AWREADY $end
$var wire 4 ?" S_AXI_AWREGION [3:0] $end
$var wire 3 @" S_AXI_AWSIZE [2:0] $end
$var wire 2 A" S_AXI_AWUSER [-1:0] $end
$var wire 1 I S_AXI_AWVALID $end
$var wire 1 H S_AXI_BID $end
$var wire 1 G S_AXI_BREADY $end
$var wire 2 B" S_AXI_BUSER [-1:0] $end
$var wire 32 C" S_AXI_RDATA [31:0] $end
$var wire 1 B S_AXI_RID $end
$var wire 1 A S_AXI_RLAST $end
$var wire 1 @ S_AXI_RREADY $end
$var wire 2 D" S_AXI_RUSER [-1:0] $end
$var wire 32 E" S_AXI_WDATA [31:0] $end
$var wire 1 ; S_AXI_WLAST $end
$var wire 1 : S_AXI_WREADY $end
$var wire 4 F" S_AXI_WSTRB [3:0] $end
$var wire 2 G" S_AXI_WUSER [-1:0] $end
$var wire 1 9 S_AXI_WVALID $end
$var wire 1 H" mem_select $end
$var wire 6 I" mem_address [5:0] $end
$var wire 32 J" aw_wrap_size [31:0] $end
$var wire 1 K" aw_wrap_en $end
$var wire 32 L" ar_wrap_size [31:0] $end
$var wire 1 M" ar_wrap_en $end
$var wire 1 = S_AXI_RVALID $end
$var wire 2 N" S_AXI_RRESP [1:0] $end
$var wire 1 D S_AXI_BVALID $end
$var wire 2 O" S_AXI_BRESP [1:0] $end
$var reg 32 P" axi_araddr [31:0] $end
$var reg 2 Q" axi_arburst [1:0] $end
$var reg 8 R" axi_arlen [7:0] $end
$var reg 8 S" axi_arlen_cntr [7:0] $end
$var reg 1 T" axi_arready $end
$var reg 1 U" axi_arv_arr_flag $end
$var reg 32 V" axi_awaddr [31:0] $end
$var reg 2 W" axi_awburst [1:0] $end
$var reg 8 X" axi_awlen [7:0] $end
$var reg 8 Y" axi_awlen_cntr [7:0] $end
$var reg 1 Z" axi_awready $end
$var reg 1 [" axi_awv_awr_flag $end
$var reg 2 \" axi_bresp [1:0] $end
$var reg 2 ]" axi_buser [-1:0] $end
$var reg 1 D axi_bvalid $end
$var reg 32 ^" axi_rdata [31:0] $end
$var reg 1 _" axi_rlast $end
$var reg 2 `" axi_rresp [1:0] $end
$var reg 2 a" axi_ruser [-1:0] $end
$var reg 1 = axi_rvalid $end
$var reg 1 b" axi_wready $end
$scope begin BRAM_GEN[0] $end
$var wire 1 c" mem_rden $end
$var wire 1 d" mem_wren $end
$scope begin BYTE_BRAM_GEN[0] $end
$var wire 8 e" data_in [7:0] $end
$var wire 8 f" data_out [7:0] $end
$upscope $end
$scope begin BYTE_BRAM_GEN[1] $end
$var wire 8 g" data_in [7:0] $end
$var wire 8 h" data_out [7:0] $end
$upscope $end
$scope begin BYTE_BRAM_GEN[2] $end
$var wire 8 i" data_in [7:0] $end
$var wire 8 j" data_out [7:0] $end
$upscope $end
$scope begin BYTE_BRAM_GEN[3] $end
$var wire 8 k" data_in [7:0] $end
$var wire 8 l" data_out [7:0] $end
$upscope $end
$upscope $end
$scope begin genblk1 $end
$upscope $end
$upscope $end
$upscope $end
$enddefinitions $end
#0
$dumpvars
bx l"
bx k"
bx j"
bx i"
bx h"
bx g"
bx f"
bx e"
xd"
xc"
xb"
bx a"
bx `"
x_"
bx ^"
bx ]"
bx \"
x["
xZ"
bx Y"
bx X"
bx W"
bx V"
xU"
xT"
bx S"
bx R"
bx Q"
bx P"
bx O"
bx N"
xM"
bx L"
xK"
bx J"
bx I"
1H"
b0 G"
b1111 F"
bx E"
bx D"
bx C"
bx B"
b1 A"
b10 @"
bz ?"
b0 >"
b0 ="
b1111 <"
b10 ;"
b1 :"
bx 9"
b1 8"
b10 7"
bz 6"
b0 5"
b0 4"
b1111 3"
b10 2"
b1 1"
bx 0"
b10 /"
b0 ."
x-"
bx ,"
bx +"
x*"
x)"
x("
x'"
bx &"
bx %"
bx $"
x#"
x""
bx !"
x~
x}
x|
x{
xz
xy
bx x
xw
xv
xu
bx t
xs
bx r
bx q
b10 p
bx o
b10 n
bx m
bx l
bx k
bx j
bx i
bx h
xg
xf
xe
xd
xc
b1000000 b
b0 a
b1111 `
b1 _
b0 ^
b0 ]
b1111 \
b10 [
b1 Z
b1 Y
b0 X
b0 W
b1111 V
b10 U
b1 T
0S
0R
0Q
bx P
xO
b10 N
xM
bx L
xK
b10 J
xI
0H
xG
bx F
bx E
xD
bx C
0B
xA
x@
bx ?
bx >
x=
bx <
x;
x:
x9
x8
x7
b0 6
b1111 5
b1 4
bz 3
b0 2
b0 1
00
b1111 /
0.
b10 -
b1 ,
b1 +
bz *
b0 )
b0 (
0'
b1111 &
0%
0$
b10 #
b1 "
0!
$end
#5000
b0 I"
1K"
0g
1M"
0d
0c
b0 e"
b0 g"
b0 i"
b0 k"
0d"
0f
0e
0#"
0""
0I
0u
b1000000000000000000000000000000 L
b1000000000000000000000000000000 o
b1000000000000000000000000000000 9"
b0 t
09
0z
0;
0y
b0 ,"
b0 <
b0 h
b0 x
b0 E"
0G
0v
0M
0s
b1000000000000000000000000000000 P
b1000000000000000000000000000000 q
b1000000000000000000000000000000 0"
b0 r
b0 &"
0@
0w
0'"
b0 !"
0~
b0 +"
b0 %"
08
07
0}
0)"
0*"
b0 $"
0|
0-"
0{
0("
0["
0K
0Z"
b0 J"
b0 X"
b0 W"
b0 Y"
b0 V"
0:
0b"
b0 E
b0 l
b0 B"
b0 ]"
b0 F
b0 m
b0 O"
b0 \"
0D
0c"
0U"
0O
0T"
b0 >
b0 i
b0 D"
b0 a"
0A
0_"
b0 L"
b0 R"
b0 Q"
b0 S"
b0 P"
b0 ?
b0 j
b0 N"
b0 `"
0=
1!
1R
#10000
0!
0R
#15000
1!
1R
#20000
0!
0R
#25000
1!
1R
#30000
0!
0R
#35000
1!
1R
#40000
0!
0R
#45000
1!
1R
#50000
0!
0R
1Q
1$
1S
#55000
1c
1""
1!
1R
#60000
0!
0R
#65000
0c
1#"
b1 $"
1!
1R
#70000
0!
0R
#75000
1*"
1!
1R
#80000
0!
0R
#85000
1I
1u
19
1z
0*"
1|
1!
1R
#90000
0!
0R
#95000
0K"
b111100 J"
b1111 X"
b1 W"
b1000000000000000000000000000000 V"
1["
1K
1Z"
1!
1R
#100000
0!
0R
#105000
1d"
1f
0I
0u
b1000000000000000000000001000000 L
b1000000000000000000000001000000 o
b1000000000000000000000001000000 9"
b1000000 t
b1 +"
0K
0Z"
1:
1b"
1!
1R
#110000
0!
0R
#115000
b1 I"
b1 e"
b1000000000000000000000000000100 V"
b1 Y"
bx l"
bx j"
bx h"
bx f"
b1 <
b1 h
b1 x
b1 E"
b1 ,"
1!
1R
#120000
0!
0R
#125000
b10 I"
b10 e"
b10 ,"
b10 <
b10 h
b10 x
b10 E"
bx f"
bx h"
bx j"
bx l"
b1000000000000000000000000001000 V"
b10 Y"
1!
1R
#130000
0!
0R
#135000
b11 I"
b11 e"
b1000000000000000000000000001100 V"
b11 Y"
bx l"
bx j"
bx h"
bx f"
b11 <
b11 h
b11 x
b11 E"
b11 ,"
1!
1R
#140000
0!
0R
#145000
b100 I"
b100 e"
b100 ,"
b100 <
b100 h
b100 x
b100 E"
bx f"
bx h"
bx j"
bx l"
b1000000000000000000000000010000 V"
b100 Y"
1!
1R
#150000
0!
0R
#155000
b101 I"
b101 e"
b1000000000000000000000000010100 V"
b101 Y"
bx l"
bx j"
bx h"
bx f"
b101 <
b101 h
b101 x
b101 E"
b101 ,"
1!
1R
#160000
0!
0R
#165000
b110 I"
b110 e"
b110 ,"
b110 <
b110 h
b110 x
b110 E"
bx f"
bx h"
bx j"
bx l"
b1000000000000000000000000011000 V"
b110 Y"
1!
1R
#170000
0!
0R
#175000
b111 I"
b111 e"
b1000000000000000000000000011100 V"
b111 Y"
bx l"
bx j"
bx h"
bx f"
b111 <
b111 h
b111 x
b111 E"
b111 ,"
1!
1R
#180000
0!
0R
#185000
b1000 I"
b1000 e"
b1000 ,"
b1000 <
b1000 h
b1000 x
b1000 E"
bx f"
bx h"
bx j"
bx l"
b1000000000000000000000000100000 V"
b1000 Y"
1!
1R
#190000
0!
0R
#195000
b1001 I"
b1001 e"
b1000000000000000000000000100100 V"
b1001 Y"
bx l"
bx j"
bx h"
bx f"
b1001 <
b1001 h
b1001 x
b1001 E"
b1001 ,"
1!
1R
#200000
0!
0R
#205000
b1010 I"
b1010 e"
b1010 ,"
b1010 <
b1010 h
b1010 x
b1010 E"
bx f"
bx h"
bx j"
bx l"
b1000000000000000000000000101000 V"
b1010 Y"
1!
1R
#210000
0!
0R
#215000
b1011 I"
b1011 e"
b1000000000000000000000000101100 V"
b1011 Y"
bx l"
bx j"
bx h"
bx f"
b1011 <
b1011 h
b1011 x
b1011 E"
b1011 ,"
1!
1R
#220000
0!
0R
#225000
b1100 I"
b1100 e"
b1100 ,"
b1100 <
b1100 h
b1100 x
b1100 E"
bx f"
bx h"
bx j"
bx l"
b1000000000000000000000000110000 V"
b1100 Y"
1!
1R
#230000
0!
0R
#235000
b1101 I"
b1101 e"
b1000000000000000000000000110100 V"
b1101 Y"
bx l"
bx j"
bx h"
bx f"
b1101 <
b1101 h
b1101 x
b1101 E"
b1101 ,"
1!
1R
#240000
0!
0R
#245000
b1110 I"
b1110 e"
b1110 ,"
b1110 <
b1110 h
b1110 x
b1110 E"
bx f"
bx h"
bx j"
bx l"
b1000000000000000000000000111000 V"
b1110 Y"
1!
1R
#250000
0!
0R
#255000
b1111 I"
1K"
b1111 e"
b1000000000000000000000000111100 V"
b1111 Y"
bx l"
bx j"
bx h"
bx f"
b1111 <
b1111 h
b1111 x
b1111 E"
b1111 ,"
1;
1y
1!
1R
#260000
0!
0R
#265000
b0 I"
0K"
b10000 e"
0d"
0f
09
0z
0;
0y
b10000 <
b10000 h
b10000 x
b10000 E"
b0 f"
b0 h"
b0 j"
b0 l"
0["
b1000000000000000000000001000000 V"
b10000 Y"
0:
0b"
1D
1!
1R
#270000
0!
0R
#275000
1G
1v
1!
1R
#280000
0!
0R
#285000
0G
0v
0|
0D
1!
1R
#290000
0!
0R
#295000
1*"
1!
1R
#300000
0!
0R
#305000
1I
1u
19
1z
b0 ,"
0*"
1|
1!
1R
#310000
0!
0R
#315000
bx f"
bx h"
bx j"
bx l"
b10000 I"
b0 Y"
1["
1K
1Z"
1!
1R
#320000
0!
0R
#325000
1d"
1f
0I
0u
b1000000000000000000000010000000 L
b1000000000000000000000010000000 o
b1000000000000000000000010000000 9"
b10000000 t
b10 +"
0K
0Z"
1:
1b"
1!
1R
#330000
0!
0R
#335000
b10001 I"
b10001 e"
b1000000000000000000000001000100 V"
b1 Y"
bx l"
bx j"
bx h"
bx f"
b10001 <
b10001 h
b10001 x
b10001 E"
b1 ,"
1!
1R
#340000
0!
0R
#345000
b10010 I"
b10010 e"
b10 ,"
b10010 <
b10010 h
b10010 x
b10010 E"
bx f"
bx h"
bx j"
bx l"
b1000000000000000000000001001000 V"
b10 Y"
1!
1R
#350000
0!
0R
#355000
b10011 I"
b10011 e"
b1000000000000000000000001001100 V"
b11 Y"
bx l"
bx j"
bx h"
bx f"
b10011 <
b10011 h
b10011 x
b10011 E"
b11 ,"
1!
1R
#360000
0!
0R
#365000
b10100 I"
b10100 e"
b100 ,"
b10100 <
b10100 h
b10100 x
b10100 E"
bx f"
bx h"
bx j"
bx l"
b1000000000000000000000001010000 V"
b100 Y"
1!
1R
#370000
0!
0R
#375000
b10101 I"
b10101 e"
b1000000000000000000000001010100 V"
b101 Y"
bx l"
bx j"
bx h"
bx f"
b10101 <
b10101 h
b10101 x
b10101 E"
b101 ,"
1!
1R
#380000
0!
0R
#385000
b10110 I"
b10110 e"
b110 ,"
b10110 <
b10110 h
b10110 x
b10110 E"
bx f"
bx h"
bx j"
bx l"
b1000000000000000000000001011000 V"
b110 Y"
1!
1R
#390000
0!
0R
#395000
b10111 I"
b10111 e"
b1000000000000000000000001011100 V"
b111 Y"
bx l"
bx j"
bx h"
bx f"
b10111 <
b10111 h
b10111 x
b10111 E"
b111 ,"
1!
1R
#400000
0!
0R
#405000
b11000 I"
b11000 e"
b1000 ,"
b11000 <
b11000 h
b11000 x
b11000 E"
bx f"
bx h"
bx j"
bx l"
b1000000000000000000000001100000 V"
b1000 Y"
1!
1R
#410000
0!
0R
#415000
b11001 I"
b11001 e"
b1000000000000000000000001100100 V"
b1001 Y"
bx l"
bx j"
bx h"
bx f"
b11001 <
b11001 h
b11001 x
b11001 E"
b1001 ,"
1!
1R
#420000
0!
0R
#425000
b11010 I"
b11010 e"
b1010 ,"
b11010 <
b11010 h
b11010 x
b11010 E"
bx f"
bx h"
bx j"
bx l"
b1000000000000000000000001101000 V"
b1010 Y"
1!
1R
#430000
0!
0R
#435000
b11011 I"
b11011 e"
b1000000000000000000000001101100 V"
b1011 Y"
bx l"
bx j"
bx h"
bx f"
b11011 <
b11011 h
b11011 x
b11011 E"
b1011 ,"
1!
1R
#440000
0!
0R
#445000
b11100 I"
b11100 e"
b1100 ,"
b11100 <
b11100 h
b11100 x
b11100 E"
bx f"
bx h"
bx j"
bx l"
b1000000000000000000000001110000 V"
b1100 Y"
1!
1R
#450000
0!
0R
#455000
b11101 I"
b11101 e"
b1000000000000000000000001110100 V"
b1101 Y"
bx l"
bx j"
bx h"
bx f"
b11101 <
b11101 h
b11101 x
b11101 E"
b1101 ,"
1!
1R
#460000
0!
0R
#465000
b11110 I"
b11110 e"
b1110 ,"
b11110 <
b11110 h
b11110 x
b11110 E"
bx f"
bx h"
bx j"
bx l"
b1000000000000000000000001111000 V"
b1110 Y"
1!
1R
#470000
0!
0R
#475000
b11111 I"
1K"
b11111 e"
b1000000000000000000000001111100 V"
b1111 Y"
bx l"
bx j"
bx h"
bx f"
b11111 <
b11111 h
b11111 x
b11111 E"
b1111 ,"
1;
1y
1!
1R
#480000
0!
0R
#485000
b0 I"
0K"
b100000 e"
0d"
0f
09
0z
0;
0y
b100000 <
b100000 h
b100000 x
b100000 E"
b0 f"
b0 h"
b0 j"
b0 l"
0["
b1000000000000000000000010000000 V"
b10000 Y"
0:
0b"
1D
1!
1R
#490000
0!
0R
#495000
1G
1v
1!
1R
#500000
0!
0R
#505000
0G
0v
0|
0D
1!
1R
#510000
0!
0R
#515000
1*"
1!
1R
#520000
0!
0R
#525000
1I
1u
19
1z
b0 ,"
0*"
1|
1!
1R
#530000
0!
0R
#535000
bx f"
bx h"
bx j"
bx l"
b100000 I"
b0 Y"
1["
1K
1Z"
1!
1R
#540000
0!
0R
#545000
1d"
1f
0I
0u
b1000000000000000000000011000000 L
b1000000000000000000000011000000 o
b1000000000000000000000011000000 9"
b11000000 t
b11 +"
0K
0Z"
1:
1b"
1!
1R
#550000
0!
0R
#555000
b100001 I"
b100001 e"
b1000000000000000000000010000100 V"
b1 Y"
bx l"
bx j"
bx h"
bx f"
b100001 <
b100001 h
b100001 x
b100001 E"
b1 ,"
1!
1R
#560000
0!
0R
#565000
b100010 I"
b100010 e"
b10 ,"
b100010 <
b100010 h
b100010 x
b100010 E"
bx f"
bx h"
bx j"
bx l"
b1000000000000000000000010001000 V"
b10 Y"
1!
1R
#570000
0!
0R
#575000
b100011 I"
b100011 e"
b1000000000000000000000010001100 V"
b11 Y"
bx l"
bx j"
bx h"
bx f"
b100011 <
b100011 h
b100011 x
b100011 E"
b11 ,"
1!
1R
#580000
0!
0R
#585000
b100100 I"
b100100 e"
b100 ,"
b100100 <
b100100 h
b100100 x
b100100 E"
bx f"
bx h"
bx j"
bx l"
b1000000000000000000000010010000 V"
b100 Y"
1!
1R
#590000
0!
0R
#595000
b100101 I"
b100101 e"
b1000000000000000000000010010100 V"
b101 Y"
bx l"
bx j"
bx h"
bx f"
b100101 <
b100101 h
b100101 x
b100101 E"
b101 ,"
1!
1R
#600000
0!
0R
#605000
b100110 I"
b100110 e"
b110 ,"
b100110 <
b100110 h
b100110 x
b100110 E"
bx f"
bx h"
bx j"
bx l"
b1000000000000000000000010011000 V"
b110 Y"
1!
1R
#610000
0!
0R
#615000
b100111 I"
b100111 e"
b1000000000000000000000010011100 V"
b111 Y"
bx l"
bx j"
bx h"
bx f"
b100111 <
b100111 h
b100111 x
b100111 E"
b111 ,"
1!
1R
#620000
0!
0R
#625000
b101000 I"
b101000 e"
b1000 ,"
b101000 <
b101000 h
b101000 x
b101000 E"
bx f"
bx h"
bx j"
bx l"
b1000000000000000000000010100000 V"
b1000 Y"
1!
1R
#630000
0!
0R
#635000
b101001 I"
b101001 e"
b1000000000000000000000010100100 V"
b1001 Y"
bx l"
bx j"
bx h"
bx f"
b101001 <
b101001 h
b101001 x
b101001 E"
b1001 ,"
1!
1R
#640000
0!
0R
#645000
b101010 I"
b101010 e"
b1010 ,"
b101010 <
b101010 h
b101010 x
b101010 E"
bx f"
bx h"
bx j"
bx l"
b1000000000000000000000010101000 V"
b1010 Y"
1!
1R
#650000
0!
0R
#655000
b101011 I"
b101011 e"
b1000000000000000000000010101100 V"
b1011 Y"
bx l"
bx j"
bx h"
bx f"
b101011 <
b101011 h
b101011 x
b101011 E"
b1011 ,"
1!
1R
#660000
0!
0R
#665000
b101100 I"
b101100 e"
b1100 ,"
b101100 <
b101100 h
b101100 x
b101100 E"
bx f"
bx h"
bx j"
bx l"
b1000000000000000000000010110000 V"
b1100 Y"
1!
1R
#670000
0!
0R
#675000
b101101 I"
b101101 e"
b1000000000000000000000010110100 V"
b1101 Y"
bx l"
bx j"
bx h"
bx f"
b101101 <
b101101 h
b101101 x
b101101 E"
b1101 ,"
1!
1R
#680000
0!
0R
#685000
b101110 I"
b101110 e"
b1110 ,"
b101110 <
b101110 h
b101110 x
b101110 E"
bx f"
bx h"
bx j"
bx l"
b1000000000000000000000010111000 V"
b1110 Y"
1!
1R
#690000
0!
0R
#695000
b101111 I"
1K"
b101111 e"
b1000000000000000000000010111100 V"
b1111 Y"
bx l"
bx j"
bx h"
bx f"
b101111 <
b101111 h
b101111 x
b101111 E"
b1111 ,"
1;
1y
1!
1R
#700000
0!
0R
#705000
b0 I"
0K"
b110000 e"
0d"
0f
09
0z
0;
0y
b110000 <
b110000 h
b110000 x
b110000 E"
b0 f"
b0 h"
b0 j"
b0 l"
0["
b1000000000000000000000011000000 V"
b10000 Y"
0:
0b"
1D
1!
1R
#710000
0!
0R
#715000
1G
1v
1!
1R
#720000
0!
0R
#725000
0G
0v
0|
0D
1!
1R
#730000
0!
0R
#735000
1*"
1!
1R
#740000
0!
0R
#745000
1I
1u
19
1z
b0 ,"
0*"
1|
1!
1R
#750000
0!
0R
#755000
bx f"
bx h"
bx j"
bx l"
b110000 I"
b0 Y"
1["
1K
1Z"
1!
1R
#760000
0!
0R
#765000
1d"
1f
0I
0u
b1000000000000000000000100000000 L
b1000000000000000000000100000000 o
b1000000000000000000000100000000 9"
b100000000 t
b100 +"
0K
0Z"
1:
1b"
1!
1R
#770000
0!
0R
#775000
b110001 I"
b110001 e"
b1000000000000000000000011000100 V"
b1 Y"
bx l"
bx j"
bx h"
bx f"
b110001 <
b110001 h
b110001 x
b110001 E"
b1 ,"
1!
1R
#780000
0!
0R
#785000
b110010 I"
b110010 e"
b10 ,"
b110010 <
b110010 h
b110010 x
b110010 E"
bx f"
bx h"
bx j"
bx l"
b1000000000000000000000011001000 V"
b10 Y"
1!
1R
#790000
0!
0R
#795000
b110011 I"
b110011 e"
b1000000000000000000000011001100 V"
b11 Y"
bx l"
bx j"
bx h"
bx f"
b110011 <
b110011 h
b110011 x
b110011 E"
b11 ,"
1!
1R
#800000
0!
0R
#805000
b110100 I"
b110100 e"
b100 ,"
b110100 <
b110100 h
b110100 x
b110100 E"
bx f"
bx h"
bx j"
bx l"
b1000000000000000000000011010000 V"
b100 Y"
1!
1R
#810000
0!
0R
#815000
b110101 I"
b110101 e"
b1000000000000000000000011010100 V"
b101 Y"
bx l"
bx j"
bx h"
bx f"
b110101 <
b110101 h
b110101 x
b110101 E"
b101 ,"
1!
1R
#820000
0!
0R
#825000
b110110 I"
b110110 e"
b110 ,"
b110110 <
b110110 h
b110110 x
b110110 E"
bx f"
bx h"
bx j"
bx l"
b1000000000000000000000011011000 V"
b110 Y"
1!
1R
#830000
0!
0R
#835000
b110111 I"
b110111 e"
b1000000000000000000000011011100 V"
b111 Y"
bx l"
bx j"
bx h"
bx f"
b110111 <
b110111 h
b110111 x
b110111 E"
b111 ,"
1!
1R
#840000
0!
0R
#845000
b111000 I"
b111000 e"
b1000 ,"
b111000 <
b111000 h
b111000 x
b111000 E"
bx f"
bx h"
bx j"
bx l"
b1000000000000000000000011100000 V"
b1000 Y"
1!
1R
#850000
0!
0R
#855000
b111001 I"
b111001 e"
b1000000000000000000000011100100 V"
b1001 Y"
bx l"
bx j"
bx h"
bx f"
b111001 <
b111001 h
b111001 x
b111001 E"
b1001 ,"
1!
1R
#860000
0!
0R
#865000
b111010 I"
b111010 e"
b1010 ,"
b111010 <
b111010 h
b111010 x
b111010 E"
bx f"
bx h"
bx j"
bx l"
b1000000000000000000000011101000 V"
b1010 Y"
1!
1R
#870000
0!
0R
#875000
b111011 I"
b111011 e"
b1000000000000000000000011101100 V"
b1011 Y"
bx l"
bx j"
bx h"
bx f"
b111011 <
b111011 h
b111011 x
b111011 E"
b1011 ,"
1!
1R
#880000
0!
0R
#885000
b111100 I"
b111100 e"
b1100 ,"
b111100 <
b111100 h
b111100 x
b111100 E"
bx f"
bx h"
bx j"
bx l"
b1000000000000000000000011110000 V"
b1100 Y"
1!
1R
#890000
0!
0R
#895000
b111101 I"
b111101 e"
b1000000000000000000000011110100 V"
b1101 Y"
bx l"
bx j"
bx h"
bx f"
b111101 <
b111101 h
b111101 x
b111101 E"
b1101 ,"
1!
1R
#900000
0!
0R
#905000
b111110 I"
b111110 e"
b1110 ,"
b111110 <
b111110 h
b111110 x
b111110 E"
bx f"
bx h"
bx j"
bx l"
b1000000000000000000000011111000 V"
b1110 Y"
1!
1R
#910000
0!
0R
#915000
b111111 I"
1K"
b111111 e"
b1000000000000000000000011111100 V"
b1111 Y"
bx l"
bx j"
bx h"
bx f"
b111111 <
b111111 h
b111111 x
b111111 E"
b1111 ,"
1;
1y
1!
1R
#920000
0!
0R
#925000
b0 I"
0K"
b1000000 e"
0d"
0f
09
0z
0;
0y
b1000000 <
b1000000 h
b1000000 x
b1000000 E"
b0 f"
b0 h"
b0 j"
b0 l"
0["
b1000000000000000000000100000000 V"
b10000 Y"
0:
0b"
1D
1!
1R
#930000
0!
0R
#935000
1G
1v
1!
1R
